-------------------------------------------------------------------------------
Test set: com.uinnva.qa.demo.TestDispName
-------------------------------------------------------------------------------
Tests run: 2, Failures: 0, Errors: 0, Skipped: 0, Time elapsed: 0.003 s - in com.uinnva.qa.demo.TestDispName
