-------------------------------------------------------------------------------
Test set: com.uinnva.qa.demo.ExampleTestCase
-------------------------------------------------------------------------------
Tests run: 4, Failures: 0, Errors: 1, Skipped: 2, Time elapsed: 0.067 s <<< FAILURE! - in com.uinnva.qa.demo.ExampleTestCase
failingTest  Time elapsed: 0.002 s  <<< ERROR!
java.lang.ArithmeticException: / by zero
	at com.uinnva.qa.demo.ExampleTestCase.failingTest(ExampleTestCase.java:38)

