<?xml version="1.0" encoding="UTF-8"?>
<testsuite xmlns:xsi="http://www.w3.org/2001/XMLSchema-instance" xsi:noNamespaceSchemaLocation="https://maven.apache.org/surefire/maven-surefire-plugin/xsd/surefire-test-report.xsd" name="com.uinnva.qa.study.TestReportDemo" time="0.001" tests="4" errors="0" skipped="0" failures="0">
  <properties>
    <property name="sun.desktop" value="windows"/>
    <property name="awt.toolkit" value="sun.awt.windows.WToolkit"/>
    <property name="file.encoding.pkg" value="sun.io"/>
    <property name="java.specification.version" value="1.8"/>
    <property name="sun.cpu.isalist" value="amd64"/>
    <property name="sun.jnu.encoding" value="GBK"/>
    <property name="java.class.path" value="D:\WORKSPACE\TarsierJunitTest\qa\target\test-classes;D:\WORKSPACE\TarsierJunitTest\qa\target\classes;D:\08 Maven\repository\org\junit\jupiter\junit-jupiter-api\5.5.0\junit-jupiter-api-5.5.0.jar;D:\08 Maven\repository\org\apiguardian\apiguardian-api\1.1.0\apiguardian-api-1.1.0.jar;D:\08 Maven\repository\org\opentest4j\opentest4j\1.2.0\opentest4j-1.2.0.jar;D:\08 Maven\repository\org\junit\platform\junit-platform-commons\1.5.0\junit-platform-commons-1.5.0.jar;D:\08 Maven\repository\org\junit\jupiter\junit-jupiter-engine\5.5.0\junit-jupiter-engine-5.5.0.jar;D:\08 Maven\repository\org\junit\platform\junit-platform-engine\1.5.0\junit-platform-engine-1.5.0.jar;D:\08 Maven\repository\org\junit\jupiter\junit-jupiter-migrationsupport\5.4.0-RC2\junit-jupiter-migrationsupport-5.4.0-RC2.jar;D:\08 Maven\repository\junit\junit\4.12\junit-4.12.jar;D:\08 Maven\repository\org\hamcrest\hamcrest-core\1.3\hamcrest-core-1.3.jar;D:\08 Maven\repository\org\junit\jupiter\junit-jupiter-params\5.5.1\junit-jupiter-params-5.5.1.jar;D:\08 Maven\repository\org\junit\platform\junit-platform-launcher\1.5.0\junit-platform-launcher-1.5.0.jar;D:\08 Maven\repository\org\junit\platform\junit-platform-runner\1.5.0\junit-platform-runner-1.5.0.jar;D:\08 Maven\repository\org\junit\platform\junit-platform-suite-api\1.5.0\junit-platform-suite-api-1.5.0.jar;D:\08 Maven\repository\org\hamcrest\hamcrest\2.1\hamcrest-2.1.jar;D:\08 Maven\repository\log4j\log4j\1.2.17\log4j-1.2.17.jar;D:\08 Maven\repository\org\springframework\spring-core\5.1.7.RELEASE\spring-core-5.1.7.RELEASE.jar;D:\08 Maven\repository\org\springframework\spring-jcl\5.1.7.RELEASE\spring-jcl-5.1.7.RELEASE.jar;"/>
    <property name="java.vm.vendor" value="Oracle Corporation"/>
    <property name="sun.arch.data.model" value="64"/>
    <property name="user.variant" value=""/>
    <property name="java.vendor.url" value="http://java.oracle.com/"/>
    <property name="user.timezone" value="Asia/Shanghai"/>
    <property name="java.vm.specification.version" value="1.8"/>
    <property name="os.name" value="Windows 10"/>
    <property name="user.country" value="CN"/>
    <property name="sun.java.launcher" value="SUN_STANDARD"/>
    <property name="sun.boot.library.path" value="C:\Program Files\Java\jdk1.8.0_131\jre\bin"/>
    <property name="sun.java.command" value="C:\Users\ADMINI~1\AppData\Local\Temp\surefire3718415172315623893\surefirebooter7844808470170767683.jar C:\Users\Administrator\AppData\Local\Temp\surefire3718415172315623893 2019-07-25T15-14-33_486-jvmRun1 surefire5966151836468129610tmp surefire_06756406575634393083tmp"/>
    <property name="surefire.test.class.path" value="D:\WORKSPACE\TarsierJunitTest\qa\target\test-classes;D:\WORKSPACE\TarsierJunitTest\qa\target\classes;D:\08 Maven\repository\org\junit\jupiter\junit-jupiter-api\5.5.0\junit-jupiter-api-5.5.0.jar;D:\08 Maven\repository\org\apiguardian\apiguardian-api\1.1.0\apiguardian-api-1.1.0.jar;D:\08 Maven\repository\org\opentest4j\opentest4j\1.2.0\opentest4j-1.2.0.jar;D:\08 Maven\repository\org\junit\platform\junit-platform-commons\1.5.0\junit-platform-commons-1.5.0.jar;D:\08 Maven\repository\org\junit\jupiter\junit-jupiter-engine\5.5.0\junit-jupiter-engine-5.5.0.jar;D:\08 Maven\repository\org\junit\platform\junit-platform-engine\1.5.0\junit-platform-engine-1.5.0.jar;D:\08 Maven\repository\org\junit\jupiter\junit-jupiter-migrationsupport\5.4.0-RC2\junit-jupiter-migrationsupport-5.4.0-RC2.jar;D:\08 Maven\repository\junit\junit\4.12\junit-4.12.jar;D:\08 Maven\repository\org\hamcrest\hamcrest-core\1.3\hamcrest-core-1.3.jar;D:\08 Maven\repository\org\junit\jupiter\junit-jupiter-params\5.5.1\junit-jupiter-params-5.5.1.jar;D:\08 Maven\repository\org\junit\platform\junit-platform-launcher\1.5.0\junit-platform-launcher-1.5.0.jar;D:\08 Maven\repository\org\junit\platform\junit-platform-runner\1.5.0\junit-platform-runner-1.5.0.jar;D:\08 Maven\repository\org\junit\platform\junit-platform-suite-api\1.5.0\junit-platform-suite-api-1.5.0.jar;D:\08 Maven\repository\org\hamcrest\hamcrest\2.1\hamcrest-2.1.jar;D:\08 Maven\repository\log4j\log4j\1.2.17\log4j-1.2.17.jar;D:\08 Maven\repository\org\springframework\spring-core\5.1.7.RELEASE\spring-core-5.1.7.RELEASE.jar;D:\08 Maven\repository\org\springframework\spring-jcl\5.1.7.RELEASE\spring-jcl-5.1.7.RELEASE.jar;"/>
    <property name="sun.cpu.endian" value="little"/>
    <property name="user.home" value="C:\Users\Administrator"/>
    <property name="user.language" value="zh"/>
    <property name="java.specification.vendor" value="Oracle Corporation"/>
    <property name="java.home" value="C:\Program Files\Java\jdk1.8.0_131\jre"/>
    <property name="basedir" value="D:\WORKSPACE\TarsierJunitTest\qa"/>
    <property name="file.separator" value="\"/>
    <property name="line.separator" value="&#10;"/>
    <property name="java.vm.specification.vendor" value="Oracle Corporation"/>
    <property name="java.specification.name" value="Java Platform API Specification"/>
    <property name="java.awt.graphicsenv" value="sun.awt.Win32GraphicsEnvironment"/>
    <property name="surefire.real.class.path" value="C:\Users\ADMINI~1\AppData\Local\Temp\surefire3718415172315623893\surefirebooter7844808470170767683.jar"/>
    <property name="sun.boot.class.path" value="C:\Program Files\Java\jdk1.8.0_131\jre\lib\resources.jar;C:\Program Files\Java\jdk1.8.0_131\jre\lib\rt.jar;C:\Program Files\Java\jdk1.8.0_131\jre\lib\sunrsasign.jar;C:\Program Files\Java\jdk1.8.0_131\jre\lib\jsse.jar;C:\Program Files\Java\jdk1.8.0_131\jre\lib\jce.jar;C:\Program Files\Java\jdk1.8.0_131\jre\lib\charsets.jar;C:\Program Files\Java\jdk1.8.0_131\jre\lib\jfr.jar;C:\Program Files\Java\jdk1.8.0_131\jre\classes"/>
    <property name="user.script" value=""/>
    <property name="sun.management.compiler" value="HotSpot 64-Bit Tiered Compilers"/>
    <property name="java.runtime.version" value="1.8.0_131-b11"/>
    <property name="user.name" value="Administrator"/>
    <property name="path.separator" value=";"/>
    <property name="os.version" value="10.0"/>
    <property name="java.endorsed.dirs" value="C:\Program Files\Java\jdk1.8.0_131\jre\lib\endorsed"/>
    <property name="java.runtime.name" value="Java(TM) SE Runtime Environment"/>
    <property name="file.encoding" value="GBK"/>
    <property name="java.vm.name" value="Java HotSpot(TM) 64-Bit Server VM"/>
    <property name="localRepository" value="D:\08 Maven\repository"/>
    <property name="java.vendor.url.bug" value="http://bugreport.sun.com/bugreport/"/>
    <property name="java.io.tmpdir" value="C:\Users\ADMINI~1\AppData\Local\Temp\"/>
    <property name="java.version" value="1.8.0_131"/>
    <property name="user.dir" value="D:\WORKSPACE\TarsierJunitTest\qa"/>
    <property name="os.arch" value="amd64"/>
    <property name="java.vm.specification.name" value="Java Virtual Machine Specification"/>
    <property name="java.awt.printerjob" value="sun.awt.windows.WPrinterJob"/>
    <property name="sun.os.patch.level" value=""/>
    <property name="java.library.path" value="C:\Program Files\Java\jdk1.8.0_131\jre\bin;C:\WINDOWS\Sun\Java\bin;C:\WINDOWS\system32;C:\WINDOWS;C:\Program Files (x86)\HP\NV\lib\shunra\vcat;C:\ProgramData\Oracle\Java\javapath;C:\Program Files\Java\jdk1.8.0_131\bin;C:\Program Files\Java\jdk1.8.0_131\jre\bin;C:\Program Files\Java\jdk1.7.0_71\bin;C:\Program Files\Java\jdk1.7.0_71\jre\bin;D:\apache-ant-1.9.7\bin;C:\Program Files (x86)\Common Files\NetSarang;C:\Windows\system32;C:\Windows;C:\Windows\System32\Wbem;C:\Windows\System32\WindowsPowerShell\v1.0\;C:\Program Files (x86)\NVIDIA Corporation\PhysX\Common;C:\strawberry\c\bin;C:\strawberry\perl\bin;C:\Python27;C:\Python27\Scripts;C:\WINDOWS\system32;C:\WINDOWS;C:\WINDOWS\System32\Wbem;C:\WINDOWS\System32\WindowsPowerShell\v1.0\;C:\Program Files\TortoiseSVN\bin;C:\Users\Administrator\AppData\Local\Microsoft\WindowsApps;D:\Oracle\instantclient_12_1;C:\Windows\System32\cmd.exe;C:\Python27\Scripts\pip.exe;C:\Program Files (x86)\Mozilla Firefox;C:\Program Files\Internet Explorer;C:\Program Files (x86)\IBM\Rational AppScan\;D:\02WNN\00 Automatic\soft\apache-maven-3.5.0\bin;C:\Program Files\nodejs\;C:\Program Files\Git\cmd;D:\wnn-demo;C:\WINDOWS\system32;C:\WINDOWS;C:\WINDOWS\System32\Wbem;C:\WINDOWS\System32\WindowsPowerShell\v1.0\;D:\Git\Test\jsLearn\mochaTest\node_modules\mocha\bin;C:\Program Files\TortoiseGit\bin;C:\WINDOWS\System32\OpenSSH\;D:\08 Maven\apache-maven-3.6.0\bin;D:\07 学习\02 SSM\demo\tools\mysql-5.7.24-winx64\bin;D:\07 学习\02 SSM\01SpringBoot\spring-2.1.1.BUILD-SNAPSHOT\bin;D:\07 学习\02 SSM\01SpringBoot\gradle-5.0\bin;C:\Program Files (x86)\HP\LoadRunner\strawberry-perl\perl\bin;C:\Program Files (x86)\HP\NV\lib\thirdparty\safenet\LDK\7.0;C:\Program Files (x86)\HP\NV\lib\shunra\snv;C:\Users\Administrator\AppData\Local\Microsoft\WindowsApps;C:\Program Files\Microsoft VS Code\bin;C:\Users\Administrator\AppData\Roaming\npm;C:\Users\Administrator\AppData\Local\Programs\Fiddler;%USERPROFILE%\AppData\Local\Microsoft\WindowsApps;C:\Users\Administrator\AppData\Local\BypassRuntm;."/>
    <property name="java.vm.info" value="mixed mode"/>
    <property name="java.vendor" value="Oracle Corporation"/>
    <property name="java.vm.version" value="25.131-b11"/>
    <property name="java.ext.dirs" value="C:\Program Files\Java\jdk1.8.0_131\jre\lib\ext;C:\WINDOWS\Sun\Java\lib\ext"/>
    <property name="sun.io.unicode.encoding" value="UnicodeLittle"/>
    <property name="java.class.version" value="52.0"/>
  </properties>
  <testcase name="reportSingleValue{TestReporter}" classname="com.uinnva.qa.study.TestReportDemo" time="0"/>
  <testcase name="reportMultipleKeyValuePairs{TestReporter}" classname="com.uinnva.qa.study.TestReportDemo" time="0"/>
  <testcase name="reportSingleValue2{TestReporter}" classname="com.uinnva.qa.study.TestReportDemo" time="0"/>
  <testcase name="reportKeyValuePair{TestReporter}" classname="com.uinnva.qa.study.TestReportDemo" time="0"/>
</testsuite>